2019-11-30 15:05:00,175 ERROR: Exception on /status [GET] [in /home/red03/.local/lib/python3.6/site-packages/flask/app.py:1761
Traceback (most recent call last):
  File "/home/red03/.local/lib/python3.6/site-packages/flask/app.py", line 2292, in wsgi_app
    response = self.full_dispatch_request()
  File "/home/red03/.local/lib/python3.6/site-packages/flask/app.py", line 1815, in full_dispatch_request
    rv = self.handle_user_exception(e)
  File "/home/red03/.local/lib/python3.6/site-packages/flask/app.py", line 1718, in handle_user_exception
    reraise(exc_type, exc_value, tb)
  File "/home/red03/.local/lib/python3.6/site-packages/flask/_compat.py", line 35, in reraise
    raise value
  File "/home/red03/.local/lib/python3.6/site-packages/flask/app.py", line 1811, in full_dispatch_request
    rv = self.preprocess_request()
  File "/home/red03/.local/lib/python3.6/site-packages/flask/app.py", line 2087, in preprocess_request
    rv = func()
  File "/home/red03/.local/lib/python3.6/site-packages/flask_stats/flask_stats.py", line 44, in before_request
    decorate_endpoints()
  File "/home/red03/.local/lib/python3.6/site-packages/flask_stats/flask_stats.py", line 40, in decorate_endpoints
    app.view_functions[endpoints['/']] = debug(app.view_functions[endpoints['/']])
KeyError: '/'
2019-11-30 15:05:00,209 ERROR: Exception on / [GET] [in /home/red03/.local/lib/python3.6/site-packages/flask/app.py:1761
Traceback (most recent call last):
  File "/home/red03/.local/lib/python3.6/site-packages/flask/app.py", line 2292, in wsgi_app
    response = self.full_dispatch_request()
  File "/home/red03/.local/lib/python3.6/site-packages/flask/app.py", line 1815, in full_dispatch_request
    rv = self.handle_user_exception(e)
  File "/home/red03/.local/lib/python3.6/site-packages/flask/app.py", line 1718, in handle_user_exception
    reraise(exc_type, exc_value, tb)
  File "/home/red03/.local/lib/python3.6/site-packages/flask/_compat.py", line 35, in reraise
    raise value
  File "/home/red03/.local/lib/python3.6/site-packages/flask/app.py", line 1811, in full_dispatch_request
    rv = self.preprocess_request()
  File "/home/red03/.local/lib/python3.6/site-packages/flask/app.py", line 2087, in preprocess_request
    rv = func()
  File "/home/red03/.local/lib/python3.6/site-packages/flask_stats/flask_stats.py", line 44, in before_request
    decorate_endpoints()
  File "/home/red03/.local/lib/python3.6/site-packages/flask_stats/flask_stats.py", line 40, in decorate_endpoints
    app.view_functions[endpoints['/']] = debug(app.view_functions[endpoints['/']])
KeyError: '/'
2019-11-30 15:05:00,242 ERROR: Exception on / [GET] [in /home/red03/.local/lib/python3.6/site-packages/flask/app.py:1761
Traceback (most recent call last):
  File "/home/red03/.local/lib/python3.6/site-packages/flask/app.py", line 2292, in wsgi_app
    response = self.full_dispatch_request()
  File "/home/red03/.local/lib/python3.6/site-packages/flask/app.py", line 1815, in full_dispatch_request
    rv = self.handle_user_exception(e)
  File "/home/red03/.local/lib/python3.6/site-packages/flask/app.py", line 1718, in handle_user_exception
    reraise(exc_type, exc_value, tb)
  File "/home/red03/.local/lib/python3.6/site-packages/flask/_compat.py", line 35, in reraise
    raise value
  File "/home/red03/.local/lib/python3.6/site-packages/flask/app.py", line 1811, in full_dispatch_request
    rv = self.preprocess_request()
  File "/home/red03/.local/lib/python3.6/site-packages/flask/app.py", line 2087, in preprocess_request
    rv = func()
  File "/home/red03/.local/lib/python3.6/site-packages/flask_stats/flask_stats.py", line 44, in before_request
    decorate_endpoints()
  File "/home/red03/.local/lib/python3.6/site-packages/flask_stats/flask_stats.py", line 40, in decorate_endpoints
    app.view_functions[endpoints['/']] = debug(app.view_functions[endpoints['/']])
KeyError: '/'
2019-11-30 15:06:00,116 ERROR: Exception on /status [GET] [in /home/red03/.local/lib/python3.6/site-packages/flask/app.py:1761
Traceback (most recent call last):
  File "/home/red03/.local/lib/python3.6/site-packages/flask/app.py", line 2292, in wsgi_app
    response = self.full_dispatch_request()
  File "/home/red03/.local/lib/python3.6/site-packages/flask/app.py", line 1815, in full_dispatch_request
    rv = self.handle_user_exception(e)
  File "/home/red03/.local/lib/python3.6/site-packages/flask/app.py", line 1718, in handle_user_exception
    reraise(exc_type, exc_value, tb)
  File "/home/red03/.local/lib/python3.6/site-packages/flask/_compat.py", line 35, in reraise
    raise value
  File "/home/red03/.local/lib/python3.6/site-packages/flask/app.py", line 1811, in full_dispatch_request
    rv = self.preprocess_request()
  File "/home/red03/.local/lib/python3.6/site-packages/flask/app.py", line 2087, in preprocess_request
    rv = func()
  File "/home/red03/.local/lib/python3.6/site-packages/flask_stats/flask_stats.py", line 44, in before_request
    decorate_endpoints()
  File "/home/red03/.local/lib/python3.6/site-packages/flask_stats/flask_stats.py", line 40, in decorate_endpoints
    app.view_functions[endpoints['/']] = debug(app.view_functions[endpoints['/']])
KeyError: '/'
2019-11-30 15:06:00,171 ERROR: Exception on / [GET] [in /home/red03/.local/lib/python3.6/site-packages/flask/app.py:1761
Traceback (most recent call last):
  File "/home/red03/.local/lib/python3.6/site-packages/flask/app.py", line 2292, in wsgi_app
    response = self.full_dispatch_request()
  File "/home/red03/.local/lib/python3.6/site-packages/flask/app.py", line 1815, in full_dispatch_request
    rv = self.handle_user_exception(e)
  File "/home/red03/.local/lib/python3.6/site-packages/flask/app.py", line 1718, in handle_user_exception
    reraise(exc_type, exc_value, tb)
  File "/home/red03/.local/lib/python3.6/site-packages/flask/_compat.py", line 35, in reraise
    raise value
  File "/home/red03/.local/lib/python3.6/site-packages/flask/app.py", line 1811, in full_dispatch_request
    rv = self.preprocess_request()
  File "/home/red03/.local/lib/python3.6/site-packages/flask/app.py", line 2087, in preprocess_request
    rv = func()
  File "/home/red03/.local/lib/python3.6/site-packages/flask_stats/flask_stats.py", line 44, in before_request
    decorate_endpoints()
  File "/home/red03/.local/lib/python3.6/site-packages/flask_stats/flask_stats.py", line 40, in decorate_endpoints
    app.view_functions[endpoints['/']] = debug(app.view_functions[endpoints['/']])
KeyError: '/'
2019-11-30 15:06:00,211 ERROR: Exception on /status [GET] [in /home/red03/.local/lib/python3.6/site-packages/flask/app.py:1761
Traceback (most recent call last):
  File "/home/red03/.local/lib/python3.6/site-packages/flask/app.py", line 2292, in wsgi_app
    response = self.full_dispatch_request()
  File "/home/red03/.local/lib/python3.6/site-packages/flask/app.py", line 1815, in full_dispatch_request
    rv = self.handle_user_exception(e)
  File "/home/red03/.local/lib/python3.6/site-packages/flask/app.py", line 1718, in handle_user_exception
    reraise(exc_type, exc_value, tb)
  File "/home/red03/.local/lib/python3.6/site-packages/flask/_compat.py", line 35, in reraise
    raise value
  File "/home/red03/.local/lib/python3.6/site-packages/flask/app.py", line 1811, in full_dispatch_request
    rv = self.preprocess_request()
  File "/home/red03/.local/lib/python3.6/site-packages/flask/app.py", line 2087, in preprocess_request
    rv = func()
  File "/home/red03/.local/lib/python3.6/site-packages/flask_stats/flask_stats.py", line 44, in before_request
    decorate_endpoints()
  File "/home/red03/.local/lib/python3.6/site-packages/flask_stats/flask_stats.py", line 40, in decorate_endpoints
    app.view_functions[endpoints['/']] = debug(app.view_functions[endpoints['/']])
KeyError: '/'
2019-11-30 15:06:00,221 ERROR: Exception on / [GET] [in /home/red03/.local/lib/python3.6/site-packages/flask/app.py:1761
Traceback (most recent call last):
  File "/home/red03/.local/lib/python3.6/site-packages/flask/app.py", line 2292, in wsgi_app
    response = self.full_dispatch_request()
  File "/home/red03/.local/lib/python3.6/site-packages/flask/app.py", line 1815, in full_dispatch_request
    rv = self.handle_user_exception(e)
  File "/home/red03/.local/lib/python3.6/site-packages/flask/app.py", line 1718, in handle_user_exception
    reraise(exc_type, exc_value, tb)
  File "/home/red03/.local/lib/python3.6/site-packages/flask/_compat.py", line 35, in reraise
    raise value
  File "/home/red03/.local/lib/python3.6/site-packages/flask/app.py", line 1811, in full_dispatch_request
    rv = self.preprocess_request()
  File "/home/red03/.local/lib/python3.6/site-packages/flask/app.py", line 2087, in preprocess_request
    rv = func()
  File "/home/red03/.local/lib/python3.6/site-packages/flask_stats/flask_stats.py", line 44, in before_request
    decorate_endpoints()
  File "/home/red03/.local/lib/python3.6/site-packages/flask_stats/flask_stats.py", line 40, in decorate_endpoints
    app.view_functions[endpoints['/']] = debug(app.view_functions[endpoints['/']])
KeyError: '/'
