2019-11-30 15:08:00,226 ERROR: Exception on / [GET] [in /home/red03/.local/lib/python3.6/site-packages/flask/app.py:1761
Traceback (most recent call last):
  File "/home/red03/.local/lib/python3.6/site-packages/flask/app.py", line 2292, in wsgi_app
    response = self.full_dispatch_request()
  File "/home/red03/.local/lib/python3.6/site-packages/flask/app.py", line 1815, in full_dispatch_request
    rv = self.handle_user_exception(e)
  File "/home/red03/.local/lib/python3.6/site-packages/flask/app.py", line 1718, in handle_user_exception
    reraise(exc_type, exc_value, tb)
  File "/home/red03/.local/lib/python3.6/site-packages/flask/_compat.py", line 35, in reraise
    raise value
  File "/home/red03/.local/lib/python3.6/site-packages/flask/app.py", line 1811, in full_dispatch_request
    rv = self.preprocess_request()
  File "/home/red03/.local/lib/python3.6/site-packages/flask/app.py", line 2087, in preprocess_request
    rv = func()
  File "/home/red03/.local/lib/python3.6/site-packages/flask_stats/flask_stats.py", line 44, in before_request
    decorate_endpoints()
  File "/home/red03/.local/lib/python3.6/site-packages/flask_stats/flask_stats.py", line 40, in decorate_endpoints
    app.view_functions[endpoints['/']] = debug(app.view_functions[endpoints['/']])
KeyError: '/'
2019-11-30 15:08:40,551 INFO: CAR-API startup [in /home/red03/frameworks-boilerplate/app/__init__.py:58
2019-11-30 15:09:00,156 ERROR: Exception on / [GET] [in /home/red03/.local/lib/python3.6/site-packages/flask/app.py:1761
Traceback (most recent call last):
  File "/home/red03/.local/lib/python3.6/site-packages/flask/app.py", line 2292, in wsgi_app
    response = self.full_dispatch_request()
  File "/home/red03/.local/lib/python3.6/site-packages/flask/app.py", line 1815, in full_dispatch_request
    rv = self.handle_user_exception(e)
  File "/home/red03/.local/lib/python3.6/site-packages/flask/app.py", line 1718, in handle_user_exception
    reraise(exc_type, exc_value, tb)
  File "/home/red03/.local/lib/python3.6/site-packages/flask/_compat.py", line 35, in reraise
    raise value
  File "/home/red03/.local/lib/python3.6/site-packages/flask/app.py", line 1813, in full_dispatch_request
    rv = self.dispatch_request()
  File "/home/red03/.local/lib/python3.6/site-packages/flask/app.py", line 1799, in dispatch_request
    return self.view_functions[rule.endpoint](**req.view_args)
  File "/home/red03/.local/lib/python3.6/site-packages/flask_stats/flask_stats.py", line 36, in wrapper
    return func(*args, **kwargs)
  File "/home/red03/frameworks-boilerplate/app/__init__.py", line 24, in catch_all
    return render_template("index.html")
NameError: name 'render_template' is not defined
2019-11-30 15:09:00,256 ERROR: Exception on / [GET] [in /home/red03/.local/lib/python3.6/site-packages/flask/app.py:1761
Traceback (most recent call last):
  File "/home/red03/.local/lib/python3.6/site-packages/flask/app.py", line 2292, in wsgi_app
    response = self.full_dispatch_request()
  File "/home/red03/.local/lib/python3.6/site-packages/flask/app.py", line 1815, in full_dispatch_request
    rv = self.handle_user_exception(e)
  File "/home/red03/.local/lib/python3.6/site-packages/flask/app.py", line 1718, in handle_user_exception
    reraise(exc_type, exc_value, tb)
  File "/home/red03/.local/lib/python3.6/site-packages/flask/_compat.py", line 35, in reraise
    raise value
  File "/home/red03/.local/lib/python3.6/site-packages/flask/app.py", line 1813, in full_dispatch_request
    rv = self.dispatch_request()
  File "/home/red03/.local/lib/python3.6/site-packages/flask/app.py", line 1799, in dispatch_request
    return self.view_functions[rule.endpoint](**req.view_args)
  File "/home/red03/.local/lib/python3.6/site-packages/flask_stats/flask_stats.py", line 36, in wrapper
    return func(*args, **kwargs)
  File "/home/red03/.local/lib/python3.6/site-packages/flask_stats/flask_stats.py", line 36, in wrapper
    return func(*args, **kwargs)
  File "/home/red03/.local/lib/python3.6/site-packages/flask_stats/flask_stats.py", line 36, in wrapper
    return func(*args, **kwargs)
  [Previous line repeated 1 more time]
  File "/home/red03/frameworks-boilerplate/app/__init__.py", line 24, in catch_all
    return render_template("index.html")
NameError: name 'render_template' is not defined
2019-11-30 15:10:00,228 ERROR: Exception on / [GET] [in /home/red03/.local/lib/python3.6/site-packages/flask/app.py:1761
Traceback (most recent call last):
  File "/home/red03/.local/lib/python3.6/site-packages/flask/app.py", line 2292, in wsgi_app
    response = self.full_dispatch_request()
  File "/home/red03/.local/lib/python3.6/site-packages/flask/app.py", line 1815, in full_dispatch_request
    rv = self.handle_user_exception(e)
  File "/home/red03/.local/lib/python3.6/site-packages/flask/app.py", line 1718, in handle_user_exception
    reraise(exc_type, exc_value, tb)
  File "/home/red03/.local/lib/python3.6/site-packages/flask/_compat.py", line 35, in reraise
    raise value
  File "/home/red03/.local/lib/python3.6/site-packages/flask/app.py", line 1813, in full_dispatch_request
    rv = self.dispatch_request()
  File "/home/red03/.local/lib/python3.6/site-packages/flask/app.py", line 1799, in dispatch_request
    return self.view_functions[rule.endpoint](**req.view_args)
  File "/home/red03/.local/lib/python3.6/site-packages/flask_stats/flask_stats.py", line 36, in wrapper
    return func(*args, **kwargs)
  File "/home/red03/.local/lib/python3.6/site-packages/flask_stats/flask_stats.py", line 36, in wrapper
    return func(*args, **kwargs)
  File "/home/red03/.local/lib/python3.6/site-packages/flask_stats/flask_stats.py", line 36, in wrapper
    return func(*args, **kwargs)
  [Previous line repeated 5 more times]
  File "/home/red03/frameworks-boilerplate/app/__init__.py", line 24, in catch_all
    return render_template("index.html")
NameError: name 'render_template' is not defined
2019-11-30 15:10:00,231 ERROR: Exception on / [GET] [in /home/red03/.local/lib/python3.6/site-packages/flask/app.py:1761
Traceback (most recent call last):
  File "/home/red03/.local/lib/python3.6/site-packages/flask/app.py", line 2292, in wsgi_app
    response = self.full_dispatch_request()
  File "/home/red03/.local/lib/python3.6/site-packages/flask/app.py", line 1815, in full_dispatch_request
    rv = self.handle_user_exception(e)
  File "/home/red03/.local/lib/python3.6/site-packages/flask/app.py", line 1718, in handle_user_exception
    reraise(exc_type, exc_value, tb)
  File "/home/red03/.local/lib/python3.6/site-packages/flask/_compat.py", line 35, in reraise
    raise value
  File "/home/red03/.local/lib/python3.6/site-packages/flask/app.py", line 1813, in full_dispatch_request
    rv = self.dispatch_request()
  File "/home/red03/.local/lib/python3.6/site-packages/flask/app.py", line 1799, in dispatch_request
    return self.view_functions[rule.endpoint](**req.view_args)
  File "/home/red03/.local/lib/python3.6/site-packages/flask_stats/flask_stats.py", line 36, in wrapper
    return func(*args, **kwargs)
  File "/home/red03/.local/lib/python3.6/site-packages/flask_stats/flask_stats.py", line 36, in wrapper
    return func(*args, **kwargs)
  File "/home/red03/.local/lib/python3.6/site-packages/flask_stats/flask_stats.py", line 36, in wrapper
    return func(*args, **kwargs)
  [Previous line repeated 6 more times]
  File "/home/red03/frameworks-boilerplate/app/__init__.py", line 24, in catch_all
    return render_template("index.html")
NameError: name 'render_template' is not defined
2019-11-30 15:11:00,098 ERROR: Exception on / [GET] [in /home/red03/.local/lib/python3.6/site-packages/flask/app.py:1761
Traceback (most recent call last):
  File "/home/red03/.local/lib/python3.6/site-packages/flask/app.py", line 2292, in wsgi_app
    response = self.full_dispatch_request()
  File "/home/red03/.local/lib/python3.6/site-packages/flask/app.py", line 1815, in full_dispatch_request
    rv = self.handle_user_exception(e)
  File "/home/red03/.local/lib/python3.6/site-packages/flask/app.py", line 1718, in handle_user_exception
    reraise(exc_type, exc_value, tb)
  File "/home/red03/.local/lib/python3.6/site-packages/flask/_compat.py", line 35, in reraise
    raise value
  File "/home/red03/.local/lib/python3.6/site-packages/flask/app.py", line 1813, in full_dispatch_request
    rv = self.dispatch_request()
  File "/home/red03/.local/lib/python3.6/site-packages/flask/app.py", line 1799, in dispatch_request
    return self.view_functions[rule.endpoint](**req.view_args)
  File "/home/red03/.local/lib/python3.6/site-packages/flask_stats/flask_stats.py", line 36, in wrapper
    return func(*args, **kwargs)
  File "/home/red03/.local/lib/python3.6/site-packages/flask_stats/flask_stats.py", line 36, in wrapper
    return func(*args, **kwargs)
  File "/home/red03/.local/lib/python3.6/site-packages/flask_stats/flask_stats.py", line 36, in wrapper
    return func(*args, **kwargs)
  [Previous line repeated 7 more times]
  File "/home/red03/frameworks-boilerplate/app/__init__.py", line 24, in catch_all
    return render_template("index.html")
NameError: name 'render_template' is not defined
